<!DOCTYPE html PUBLIC "-//W3C//DTD XHTML+RDFa 1.0//EN" "http://www.w3.org/MarkUp/DTD/xhtml-rdfa-1.dtd"><html xmlns="http://www.w3.org/1999/xhtml" xmlns:og="http://opengraphprotocol.org/schema/" xmlns:fb="http://www.facebook.com/2008/fbml" xml:lang="it" dir="ltr" lang="it">
<head>
<meta name="layout" content="articleblue"/>
<meta http-equiv="X-UA-Compatible" content="IE=edge" />
<link rel="image_src" href="http://u.goal.com/205100/205124_news.jpg" /><script type="text/javascript">

    (function (window, document) {

        if (typeof (window.console) === 'undefined') {
            window.console = {
                log   : function () {},
                info  : function () {},
                warn  : function () {},
                error : function () {},
                assert: function () {}
            };
        }

        /*
         * Override default alert() method to not allow 3rd party javascript run it on our page
         * We should use _alert() instead of it, if necessary
         */
        window._alert = window.alert;
        window.alert = function() {
            console.log('alert', arguments);
        };

        window.G = {
            config: {
                lmc: {
                    link: "http://www.livematch.goal.com"
                },
                opta: {
                    apikey: "5f70c5da5433ffa6b1a4d257bf64dc85"
                },
                context: {"locale":"it","sectionId":"7","sectionPath":"calciomercato","year":"2012","month":"08","day":"24","contentId":"3327428","articlePath":"la-fiorentina-aspetta-berbatov-c\u00e8-lofferta-al-manchester","controller":"news","action":"article","contentSegment":"cookieCrumb","position":"2","widget":"Eplayer","type":"article","section":"7","pageCode":"article","cmsId":22316322,"pageType":"article"},
                countryCodeToEdition: {"US":"en-us","GB":"en-gb","IN":"en-india","IE":"en-ie","SG":"en-sg","MY":"en-my","AU":"en-au","NG":"en-ng","CA":"en-ca","IT":"it","DE":"de","ES":"es","FR":"fr","BR":"br","NL":"nl","TR":"tr","ID":"id-ID","CN":"cn","HK":"hk","KR":"kr","JP":"jp","AF":"iran","IR":"iran","DZ":"ar","BH":"ar","KM":"ar","DJ":"ar","IQ":"ar","JO":"ar","KW":"ar","LB":"ar","LY":"ar","MR":"ar","MA":"ar","OM":"ar","PS":"ar","QA":"ar","SO":"ar","SD":"ar","SY":"ar","TN":"ar","AE":"ar","YE":"ar","EG":"ar-eg","SA":"ar-sa","TH":"th","GH":"en-gh","AR":"es-ar","BO":"es-ar","PA":"es-ar","PY":"es-ar","PE":"es-ar","UY":"es-ar","KE":"en-ke","ZA":"en-za","CO":"es-co","EC":"es-co","VE":"es-co","CL":"es-cl","MX":"es-mx","CR":"es-mx","CU":"es-mx","DO":"es-mx","SV":"es-mx","GT":"es-mx","HN":"es-mx","NI":"es-mx"}            }
        }; 
    }(window, document));

</script>
<title>La Fiorentina aspetta Berbatov: c'è l'offerta al Manchester United. Per la difesa spunta Orban... - Goal.com</title><meta property="og:type" content="article" />
<meta property="og:url" content="http://www.goal.com/it/news/7/calciomercato/2012/08/24/3327428/la-fiorentina-aspetta-berbatov-c%C3%A8-lofferta-al-manchester" />
<meta property="og:site_name" content="Goal.com" />
<meta property="og:locale" content="it" />
<meta property="og:title" content="La Fiorentina aspetta Berbatov: c'è l'offerta al Manchester United. Per la difesa spunta Orban..." />
<meta property="og:image" content="http://u.goal.com/205100/205124_news.jpg" />
<meta http-equiv="Content-Language" content="it" />
<meta http-equiv="Content-Type" content="text/html; charset=UTF-8" /><link href="http://i1.goal.com/web/goal/2012.10.02-v1/css/default/news/article-merged.css" media="screen" rel="stylesheet" type="text/css" />
<link href="http://i2.goal.com/web/goal/2012.10.02-v1/css/default/article-print.css" media="print" rel="stylesheet" type="text/css" /><script type="text/javascript" src="https://ajax.googleapis.com/ajax/libs/jquery/1.4.2/jquery.min.js"></script>
<script type="text/javascript" src="https://ajax.googleapis.com/ajax/libs/jqueryui/1.8/jquery-ui.min.js"></script>
<script type="text/javascript" src="https://www.google.com/jsapi"></script>
<script type="text/javascript" src="http://cdn.gigya.com/js/socialize.js?apiKey=2_Y8Ou2zve7eSZI-lzS_Sx1CPu9ZO65T9xjCUz9vX5C60PxafAuK2Z5fPvO_tmfs7D">
{
    connectWithoutLoginBehavior: 'alwaysLogin',
    enabledProviders: 'facebook,twitter,google,yahoo',
    lang: 'it'
}
</script><script type="text/javascript">
    var goal = window.goal || {};
    goal.lang = 'it';
</script>
    <link href="/favicon.png" rel="icon" type="image/png" />
</head>

<body class="dir-ltr lang-it it lang-code-it">
<script type="text/javascript">
//<![CDATA[
var ord=Math.floor(1000000*Math.random());var dblClickIndex=0;
//]]>
</script><script type="text/javascript" src="https://medrx.sensis.com.au/images/sensis/goal/util.js"></script>
<div id="main" class="blue " >
    <!-- widget:cookieinfo -->
<script>
    $(function() {
        var eu_countries = ['UK', 'GB'],
            expire = new Date(),
            content = '<div class="widget cookie-info" id="">' +
                '<div class="cookie-info-inset">' +
                    '<p>' +
                        '<span class="cookie-info-title">We use cookies on this web site</span>...' +
                        'To find out more about cookies, please see our ' +
                        '<a href="/it/legal/privacy-policy">Privacy Policy</a>.' +
                    '</p>' +
                    '<p>' +
                        'If you continue using our website, we will assume that you consent to the cookies we set.' +
                    '</p>' +
                '</div>' +
            '</div>';
        expire.setMonth(expire.getMonth()+1);
        if(!$.cookie('cookie-info') && (-1 !== $.inArray($.cookie('cc'), eu_countries) && G.env.edition === 'en-gb')) {
            $.cookie('cookie-info', 1, {expires: expire});
            $('body').prepend(content);
        }
    });
</script>

<!-- /widget:cookieinfo, time:0.0013940334320068s, cache:no -->    <div id="ad-masthead">
  
<!-- Begin masthead AdTag -->
<script>/* Custom masthead AdTag post-render callback */</script>
<!-- End masthead AdTag -->
</div>

<div id="header">

<div id="top">
    <div class="edition_picker_wrapper">
        <div class="edition_picker">
                        <ul class="first">
                <li><a class="flag_en" href="/en/">International</a></li>
            </ul>
                            <ul>
                                            <li><a class="flag_en-us" href="/en-us/">America (EN)&#x200E;</a></li>
                                            <li><a class="flag_en-gb" href="/en-gb/">United Kingdom (EN)&#x200E;</a></li>
                                            <li><a class="flag_en-india" href="/en-india/">India (EN)&#x200E;</a></li>
                                            <li><a class="flag_en-ie" href="/en-ie/">Ireland (EN)&#x200E;</a></li>
                                            <li><a class="flag_en-my" href="/en-my/">Malaysia (EN)&#x200E;</a></li>
                                            <li><a class="flag_en-sg" href="/en-sg/">Singapore (EN)&#x200E;</a></li>
                                            <li><a class="flag_en-ca" href="/en-ca/">Canada (EN)&#x200E;</a></li>
                                    </ul>
                            <ul>
                                            <li><a class="flag_en-au" href="/en-au/">Australia (EN)&#x200E;</a></li>
                                            <li><a class="flag_en-ng" href="/en-ng/">Nigeria (EN)&#x200E;</a></li>
                                            <li><a class="flag_en-gh" href="/en-gh/">Ghana (EN)&#x200E;</a></li>
                                            <li><a class="flag_en-ke" href="/en-ke/">Kenya (EN)&#x200E;</a></li>
                                            <li><a class="flag_en-za" href="/en-za/">South Africa (EN)&#x200E;</a></li>
                                            <li><a class="flag_es" href="/es/">España (ES)&#x200E;</a></li>
                                            <li><a class="flag_es-ar" href="/es-ar/">Argentina (ES)&#x200E;</a></li>
                                    </ul>
                            <ul>
                                            <li><a class="flag_es-co" href="/es-co/">Colombia (ES)&#x200E;</a></li>
                                            <li><a class="flag_es-cl" href="/es-cl/">Chile (ES)&#x200E;</a></li>
                                            <li><a class="flag_es-mx" href="/es-mx/">México (ES)&#x200E;</a></li>
                                            <li><a class="flag_it" href="/it/">Italiano</a></li>
                                            <li><a class="flag_de" href="/de/">Deutsch</a></li>
                                            <li><a class="flag_fr" href="/fr/">Français</a></li>
                                            <li><a class="flag_br" href="/br/">Português</a></li>
                                    </ul>
                            <ul>
                                            <li><a class="flag_nl" href="/nl/">Nederlands</a></li>
                                            <li><a class="flag_tr" href="/tr/">Türkçe</a></li>
                                            <li><a class="flag_id-ID" href="/id-ID/">Indonesian</a></li>
                                            <li><a class="flag_cn" href="/cn/">中文</a></li>
                                            <li><a class="flag_hk" href="/hk/">繁體中文</a></li>
                                            <li><a class="flag_kr" href="/kr/">한국어</a></li>
                                            <li><a class="flag_jp" href="/jp/">日本語</a></li>
                                    </ul>
                            <ul>
                                            <li><a class="flag_th" href="/th/">ภาษาไทย</a></li>
                                            <li><a class="flag_iran" href="/iran/">فارسی</a></li>
                                            <li><a class="flag_ar" href="/ar/">العربية</a></li>
                                            <li><a class="flag_ar-eg" href="/ar-eg/">المصرية</a></li>
                                            <li><a class="flag_ar-sa" href="/ar-sa/">السعودية</a></li>
                                    </ul>
                    </div><!-- .edition_picker -->
    </div><!-- .edition_picker_wrapper -->

    <div id="topLinksContainer">
        <div id="topLinks">

            <div class="edition_picker_active">
                <a href="#">Edizione: <span class="flag_it"></span> Italiano <em></em></a>
            </div><!-- .edition_picker_active -->
            
                            <ul id="quickLinks">
                    <li><a href=http://www.goal.com/it/info/1/main/2010/06/15/1743519/applicazione-mobile-goalcom>Mobile App</a></li><li><a href=http://adv.goal.com/it/>Advertise</a></li><li><a href=mailto:italydesk@goal.com?subject=Collaborazione>Collabora con noi</a></li>                </ul>
                            <div class="follow_us_wrapper">
                <p>Seguici su</p>
                <div id="gigya_followbar_ui"></div>
                
                    <script>
                    
                    $(function() {
                        gigya.socialize.showFollowBarUI({'containerID':'gigya_followbar_ui','showTermsLink':false,'enabledProviders':'facebook,twitter,google,yahoo','hideGigyaLink':true,'iconSize':'22','buttons':[{provider:'twitter',actionURL:'http://twitter.com/Goalitalia',action:'window'},{provider:'facebook',actionURL:'http://www.facebook.com/Goal.Italia',action:'dialog'},{provider:'rss',actionURL:'/it/feeds/news?id=7&amp;fmt=rss',action:'window'}]});
                    });
                
                    </script>
                                            </div>
        </div>
    </div>
</div>
  <div id="userToolsContainer">
      <div id="userTools">
          <div id="userToolsLeft">
             <div id="header-logo"><a class="header-logo" href="/it/"></a></div>
          </div>
          <div id="userToolsRight">
                       <div id="searchBar">
                                   <form action="/it/search/results" id="cse-search-box">
                      <div>
                          <input id="searchText" class="non_homepage_search" name="q" type="text" value="" style="background-image: none;" />
                          <input id="searchButton" name="sa" type="submit" value="" />
                      </div>
                  </form>
                               </div>

                        <a class="hidden" id="ipad" onclick="return false;" href="https://secure.goal.com/it/account/contest/ipad"></a>
            <div id="goal_account_menu" > 
                <div class="is_logged_in">
                    <span class="gigya_hi hidden">
                        <img src="" width="24" height="24" />Ciao <span class="nickname"></span>
                    </span>
					<span> | </span>
                    <a href="https://secure.goal.com/it/account" >Il mio account</a>
                    <span> | </span>
                    <a class="logout" rel="logout" href="https://secure.goal.com/it/account/logout" >Esci</a>
                </div>
                <div class="isnt_logged_in">
                    <a class="isnt_logged_in_label" rel="login" onclick="return false;" href="https://secure.goal.com/it/account/login/form">Registrati o Accedi:</a>

                    <!-- widget:gigyalogin -->
<div id="goal-widget-gigyalogin-8" class="gigya_login_ui"></div>
<script type="text/javascript">
gigya.socialize.showLoginUI({
    containerID: "goal-widget-gigyalogin-8",
    showTermsLink: false,
    hideGigyaLink: true,
    buttonsStyle: "standard",
    lastLoginIndication: "border",
    width: "140",
    height: "30"
});
</script>
<!-- /widget:gigyalogin, time:0.00021910667419434s, cache:no -->					
				</div><!-- .isnt_logged_in -->
                <script>
                    //gigya init
                    $(function() {
                        //autologin
                        if(!G.env.isLoggedIn) {
                            G.Gigya.getUserInfo(function(response) {
                                if(response.errorCode === 0 && response.user.isLoggedIn) {
                                    $.ajax({
                                        url: 'https://secure.goal.com/it/account/auto-login',
                                        data: {
                                            auth: 'gigya', 
                                            UID: response.user.UID, 
                                            timestamp: response.signatureTimestamp, 
                                            signature: response.UIDSignature
                                        },
                                        dataType: "jsonp",
                                        crossDomain: true,
                                        jsonp : "callback",
                                        success: function (response) {
                                            if(response.data === true) {
                                                layout.myAccountLink.show();
                                            }
                                        }
                                    });
                                }
                            });
                        }

                        G.events.onLogout.push(function() {
                            $.ajax({
                                url: "https://secure.goal.com/it/account/logout",
                                dataType: "jsonp",
                                crossDomain: true,
                                jsonp : "callback",
                                success: function( response ) {
                                    if(response.result === true) {
                                        layout.myAccountLink.hide();
                                        if(location.protocol === 'https:') {
                                            location.href = 'http://www.goal.com/it';
                                        }
                                    }
                                }
                             });
                        });

                        gigya.socialize.addEventHandlers({
                            onLogin: function(eventObj) { 
                                var params = {
                                    auth: 'gigya',
                                    UID: eventObj.UID,
                                    timestamp: eventObj.timestamp,
                                    signature: eventObj.signature
                                };

                                $.ajax({
                                    url: "https://secure.goal.com/it/account/login",
                                    data: params,
                                    dataType: "jsonp",
                                    crossDomain: true,
                                    jsonp: "callback",
                                    success: function( response ) {
                                        if(response.result === false) {
                                            //show register form
                                            $(document.body).modalPanel({html: ''}); 
                                            $('#modal_window').html(response.data);
                                        } else {
                                            $.modalPanel('close');
                                            layout.myAccountLink.show();
                                            G.Gigya.getUserInfo(function(response) {
                                                $.each(G.events.onLogin, function(index, callback) { 
                                                    callback(response); 
                                                });
                                            });
                                        }
                                    }
                                });
                            }
                        });
                    }); //end gigya init
                </script>
            </div><!-- goal_account_menu -->
                      </div>
      </div>
  </div>
<div class="clear"></div>


  
<div id="nav">
    <ul class="first-child">
                                                                        <li class="parent first-child" id="menu-1">
            <a class="parent" href="/it/news/archive/1" id="menu-link-1">Notizie</a>
                            <ul class="children" id="menu-children-1">
                                                                    <li id="menu-child-1-1">
                            <a href="/it/news/7/calciomercato/archive/1" id="menu-child-1-1-a">
                                Calciomercato                            </a>
                        </li>
                                                                    <li id="menu-child-1-2">
                            <a href="/it/news/2/serie-a/archive/1" id="menu-child-1-2-a">
                                Serie A                            </a>
                        </li>
                                                                    <li id="menu-child-1-3">
                            <a href="/it/news/5/serie-b/archive/1" id="menu-child-1-3-a">
                                Serie B                            </a>
                        </li>
                                                                    <li id="menu-child-1-4">
                            <a href="http://www.goal.com/it/news/98/coppa-italia/archive/1" id="menu-child-1-4-a">
                                Coppa Italia                            </a>
                        </li>
                                                                    <li id="menu-child-1-5">
                            <a href="http://www.goal.com/it/news/173/champions-league/archive/1" id="menu-child-1-5-a">
                                Champions League                            </a>
                        </li>
                                                                    <li id="menu-child-1-6">
                            <a href="http://www.goal.com/it/news/171/europa-league/archive/1" id="menu-child-1-6-a">
                                Europa League                            </a>
                        </li>
                                                                    <li id="menu-child-1-7">
                            <a href="/it/news/94/estero/archive/1" id="menu-child-1-7-a">
                                Calcio Estero                            </a>
                        </li>
                                    </ul>
                    </li>
                                                                <li class="parent " id="menu-2">
            <a class="parent" href="" id="menu-link-2">Editoriali</a>
                            <ul class="children" id="menu-children-2">
                                                                    <li id="menu-child-2-1">
                            <a href="/it/news/787/le-opinioni-di-goal/archive/1" id="menu-child-2-1-a">
                                Editoriali&Opinioni                            </a>
                        </li>
                                                                    <li id="menu-child-2-2">
                            <a href="/it/news/1941/inchiestespeciali/archive/1" id="menu-child-2-2-a">
                                Inchieste&Speciali                            </a>
                        </li>
                                                                    <li id="menu-child-2-3">
                            <a href="/it/news/1942/interviste-esclusive/archive/1" id="menu-child-2-3-a">
                                Esclusive&Interviste                            </a>
                        </li>
                                                                    <li id="menu-child-2-4">
                            <a href="http://www.goal.com/it/news/3785/generazione-di-fenomeni" id="menu-child-2-4-a">
                                Generazione di Fenomeni                            </a>
                        </li>
                                    </ul>
                    </li>
                                                                <li class="parent " id="menu-3">
            <a class="parent" href="http://www.goal.com/it/live-scores/fixtures?tab=all" id="menu-link-3">Live</a>
                            <ul class="children" id="menu-children-3">
                                                                    <li id="menu-child-3-1">
                            <a href="http://www.goal.com/it/live-scores/fixtures?tab=all" id="menu-child-3-1-a">
                                Risultati Live                            </a>
                        </li>
                                    </ul>
                    </li>
                                                                <li class="parent " id="menu-4">
            <a class="parent" href="http://www.goal.com/it/news/7/calciomercato" id="menu-link-4">Calciomercato</a>
                            <ul class="children" id="menu-children-4">
                                                                    <li id="menu-child-4-1">
                            <a href="/it/news/7/calciomercato/archive/1" id="menu-child-4-1-a">
                                Tutte le notizie                            </a>
                        </li>
                                                                    <li id="menu-child-4-2">
                            <a href="http://www.goal.com/it/scores/transfer-zone/1/69/serie-a" id="menu-child-4-2-a">
                                Tabella Trasferimenti in Serie A                            </a>
                        </li>
                                                                    <li id="menu-child-4-3">
                            <a href="http://www.goal.com/it/rumours/last/24" id="menu-child-4-3-a">
                                Le voci di calciomercato                            </a>
                        </li>
                                                                    <li id="menu-child-4-4">
                            <a href="/it/scores/transfer-zone" id="menu-child-4-4-a">
                                Tabella Trasferimenti Mondiale                            </a>
                        </li>
                                                                    <li id="menu-child-4-5">
                            <a href="http://www.goal.com/it/news/7/calciomercato/2012/07/11/3228883/tabella-calciomercato-serie-a-acquisti-e-cessioni-ufficiali" id="menu-child-4-5-a">
                                Mercato estivo 2012/13 - Riepilogo                            </a>
                        </li>
                                                                    <li id="menu-child-4-6">
                            <a href="http://www.goal.com/it/news/1941/inchiestespeciali/2012/01/02/2827507/speciale-goalcom-il-diario-di-bordo-del-calciomercato-il" id="menu-child-4-6-a">
                                Mercato invernale 2011/12 - Riepilogo                            </a>
                        </li>
                                                                    <li id="menu-child-4-7">
                            <a href="http://www.goal.com/it/news/1941/inchiestespeciali/2011/09/01/2573605/speciale-goalcom-il-diario-di-bordo-del-calciomercato-il" id="menu-child-4-7-a">
                                Mercato estivo 2011/12 - Riepilogo                            </a>
                        </li>
                                    </ul>
                    </li>
                                                                <li class="parent " id="menu-5">
            <a class="parent" href="http://www.goal.com/it/news/2/serie-a" id="menu-link-5">Serie A</a>
                            <ul class="children" id="menu-children-5">
                                                                    <li id="menu-child-5-1">
                            <a href="http://www.goal.com/it/news/2/serie-a/archive/1" id="menu-child-5-1-a">
                                Tutte le notizie                            </a>
                        </li>
                                                                    <li id="menu-child-5-2">
                            <a href="http://www.goal.com/it/results-standings/69/serie-a" id="menu-child-5-2-a">
                                Risultati&Classifica                            </a>
                        </li>
                                                                    <li id="menu-child-5-3">
                            <a href="http://www.goal.com/it/news/2/serie-a/2012/07/26/3267375/calendario-serie-a-2012-2013" id="menu-child-5-3-a">
                                Il calendario della Serie A 2012/13                            </a>
                        </li>
                                                                    <li id="menu-child-5-4">
                            <a href="http://www.goal.com/it/news/1945/probabili-formazioni" id="menu-child-5-4-a">
                                Probabili Formazioni Serie A                            </a>
                        </li>
                                                                    <li id="menu-child-5-5">
                            <a href="http://www.goal.com/it/teams/italy/145/atalanta" id="menu-child-5-5-a">
                                Atalanta                            </a>
                        </li>
                                                                    <li id="menu-child-5-6">
                            <a href="http://www.goal.com/it/teams/italy/6/bologna" id="menu-child-5-6-a">
                                Bologna                            </a>
                        </li>
                                                                    <li id="menu-child-5-7">
                            <a href="http://www.goal.com/it/teams/italy/141/cagliari" id="menu-child-5-7-a">
                                Cagliari                            </a>
                        </li>
                                                                    <li id="menu-child-5-8">
                            <a href="http://www.goal.com/it/teams/italy/169/catania" id="menu-child-5-8-a">
                                Catania                            </a>
                        </li>
                                                                    <li id="menu-child-5-9">
                            <a href="http://www.goal.com/it/teams/italy/113/chievo" id="menu-child-5-9-a">
                                Chievo                            </a>
                        </li>
                                                                    <li id="menu-child-5-10">
                            <a href="http://www.goal.com/it/teams/italy/142/fiorentina" id="menu-child-5-10-a">
                                Fiorentina                            </a>
                        </li>
                                                                    <li id="menu-child-5-11">
                            <a href="http://www.goal.com/it/teams/italy/174/genoa" id="menu-child-5-11-a">
                                Genoa                            </a>
                        </li>
                                                                    <li id="menu-child-5-12">
                            <a href="http://www.goal.com/it/teams/italy/2/inter" id="menu-child-5-12-a">
                                Inter                            </a>
                        </li>
                                                                    <li id="menu-child-5-13">
                            <a href="http://www.goal.com/it/teams/italy/3/juventus" id="menu-child-5-13-a">
                                Juventus                            </a>
                        </li>
                                                                    <li id="menu-child-5-14">
                            <a href="http://www.goal.com/it/teams/italy/8/lazio" id="menu-child-5-14-a">
                                Lazio                            </a>
                        </li>
                                                                    <li id="menu-child-5-15">
                            <a href="http://www.goal.com/it/teams/italy/1/milan" id="menu-child-5-15-a">
                                Milan                            </a>
                        </li>
                                                                    <li id="menu-child-5-16">
                            <a href="http://www.goal.com/it/teams/italy/165/napoli" id="menu-child-5-16-a">
                                Napoli                            </a>
                        </li>
                                                                    <li id="menu-child-5-17">
                            <a href="http://www.goal.com/it/teams/italy/143/palermo" id="menu-child-5-17-a">
                                Palermo                            </a>
                        </li>
                                                                    <li id="menu-child-5-18">
                            <a href="http://www.goal.com/it/teams/italy/4/parma" id="menu-child-5-18-a">
                                Parma                            </a>
                        </li>
                                                                    <li id="menu-child-5-19">
                            <a href="http://www.goal.com/it/teams/italy/180/pescara" id="menu-child-5-19-a">
                                Pescara                            </a>
                        </li>
                                                                    <li id="menu-child-5-20">
                            <a href="http://www.goal.com/it/teams/italy/7/roma" id="menu-child-5-20-a">
                                Roma                            </a>
                        </li>
                                                                    <li id="menu-child-5-21">
                            <a href="http://www.goal.com/it/teams/italy/120/sampdoria" id="menu-child-5-21-a">
                                Sampdoria                            </a>
                        </li>
                                                                    <li id="menu-child-5-22">
                            <a href="http://www.goal.com/it/teams/italy/121/siena" id="menu-child-5-22-a">
                                Siena                            </a>
                        </li>
                                                                    <li id="menu-child-5-23">
                            <a href="http://www.goal.com/it/teams/italy/170/torino" id="menu-child-5-23-a">
                                Torino                            </a>
                        </li>
                                                                    <li id="menu-child-5-24">
                            <a href="http://www.goal.com/it/teams/italy/122/udinese" id="menu-child-5-24-a">
                                Udinese                            </a>
                        </li>
                                    </ul>
                    </li>
                                                                <li class="parent " id="menu-6">
            <a class="parent" href="http://www.goal.com/it/news/5/serie-b" id="menu-link-6">Serie B</a>
                            <ul class="children" id="menu-children-6">
                                                                    <li id="menu-child-6-1">
                            <a href="http://www.goal.com/it/news/5/serie-b/archive/1" id="menu-child-6-1-a">
                                Tutte le notizie                            </a>
                        </li>
                                                                    <li id="menu-child-6-2">
                            <a href="http://www.goal.com/it/results-standings/70/serie-b" id="menu-child-6-2-a">
                                Risultati&Classifica                            </a>
                        </li>
                                    </ul>
                    </li>
                                                                <li class="parent " id="menu-7">
            <a class="parent" href="http://www.goal.com/it/news/173/champions-league" id="menu-link-7">Champions League</a>
                            <ul class="children" id="menu-children-7">
                                                                    <li id="menu-child-7-1">
                            <a href="http://www.goal.com/it/news/173/champions-league/archive/1" id="menu-child-7-1-a">
                                Tutte le notizie                            </a>
                        </li>
                                                                    <li id="menu-child-7-2">
                            <a href="http://www.goal.com/it/results-standings/49/uefa-champions-league" id="menu-child-7-2-a">
                                Risultati&Classifiche                            </a>
                        </li>
                                    </ul>
                    </li>
                                                                <li class="parent " id="menu-8">
            <a class="parent" href="http://www.goal.com/it/news/171/europa-league" id="menu-link-8">Europa League</a>
                            <ul class="children" id="menu-children-8">
                                                                    <li id="menu-child-8-1">
                            <a href="http://www.goal.com/it/news/171/europa-league/archive/1" id="menu-child-8-1-a">
                                Tutte le notizie                            </a>
                        </li>
                                                                    <li id="menu-child-8-2">
                            <a href="http://www.goal.com/it/results-standings/73/europa-league" id="menu-child-8-2-a">
                                Risultati&Classifiche                            </a>
                        </li>
                                    </ul>
                    </li>
                                                                <li class="parent " id="menu-9">
            <a class="parent" href="http://www.goal.com/it/news/94/estero" id="menu-link-9">Calcio Estero</a>
                            <ul class="children" id="menu-children-9">
                                                                    <li id="menu-child-9-1">
                            <a href="http://www.goal.com/it/news/61/inghilterra" id="menu-child-9-1-a">
                                Inghilterra                            </a>
                        </li>
                                                                    <li id="menu-child-9-2">
                            <a href="/it/news/62/spagna" id="menu-child-9-2-a">
                                Spagna                            </a>
                        </li>
                                                                    <li id="menu-child-9-3">
                            <a href="/it/news/63/germania" id="menu-child-9-3-a">
                                Germania                            </a>
                        </li>
                                                                    <li id="menu-child-9-4">
                            <a href="/it/news/77/francia" id="menu-child-9-4-a">
                                Francia                            </a>
                        </li>
                                                                    <li id="menu-child-9-5">
                            <a href="/it/news/504/sudamerica/archive/1" id="menu-child-9-5-a">
                                Sud America                            </a>
                        </li>
                                                                    <li id="menu-child-9-6">
                            <a href="/it/news/1950/africa/archive/1" id="menu-child-9-6-a">
                                Africa                            </a>
                        </li>
                                                                    <li id="menu-child-9-7">
                            <a href="/it/news/1951/asia/archive/1" id="menu-child-9-7-a">
                                Asia                            </a>
                        </li>
                                                                    <li id="menu-child-9-8">
                            <a href="http://www.goal.com/it/news/94/estero" id="menu-child-9-8-a">
                                Resto del Mondo                            </a>
                        </li>
                                    </ul>
                    </li>
                                                                <li class="parent " id="menu-10">
            <a class="parent" href="http://www.goal.com/it/news/4557/mondiali-2014" id="menu-link-10">Brasile 2014</a>
                            <ul class="children" id="menu-children-10">
                                                                    <li id="menu-child-10-1">
                            <a href="http://www.goal.com/it/news/4557/mondiali-2014/archive/1" id="menu-child-10-1-a">
                                Tutte le notizie                            </a>
                        </li>
                                                                    <li id="menu-child-10-2">
                            <a href="http://www.goal.com/it/results-standings/135/qualificazioni-mondiale-2014-europa/group" id="menu-child-10-2-a">
                                Risultati&Classifiche                            </a>
                        </li>
                                                                    <li id="menu-child-10-3">
                            <a href="http://www.goal.com/it/teams/italy/13/italia" id="menu-child-10-3-a">
                                Speciale Italia                            </a>
                        </li>
                                    </ul>
                    </li>
                                                                <li class="parent " id="menu-11">
            <a class="parent" href="http://www.goal.com/it/news/3431/scommesse" id="menu-link-11">Scommesse</a>
                    </li>
                                                                <li class="parent last-child" id="menu-12">
            <a class="parent" href="http://www.goal.com/it/news/3679/video" id="menu-link-12">Video</a>
                    </li>
            </ul>
</div>

 <table class="leaderboard">
    <tr>
        <td>
            <div id="ad728x90">
                <div class="content">
                    <script language="javascript">
document.write('<scr'+'ipt language="javascript1.1" ' +' src="http://adserver.adtech.de/addyn|3.0|327.0|3555308|0|225|ADTECH;cookie=info;alias=it7TL;key=news:article+3327428+7+1;kvenv=production;kvpagetype=news:article;kvarticleid=3327428;kvteamid=142;kvmatchid=;kvsectionid=7:1;loc=100;target=_blank;sub1=[subst];grp=1285197803;misc=1285197803"></scri'+'pt>');
</script>
<noscript>
<a href="http://adserver.adtech.de/adlink|3.0|327.0|3555308|0|225|ADTECH;loc=300;alias=it7TL;key=news:article+3327428+7+1;kvenv=production;kvpagetype=news:article;kvarticleid=3327428;kvteamid=142;kvmatchid=;kvsectionid=7:1;cookie=info;" target="_blank">
<img src="http://adserver.adtech.de/adserv|3.0|327.0|3555308|0|225|ADTECH;loc=300;alias=it7TL;key=news:article+3327428+7+1;kvenv=production;kvpagetype=news:article;kvarticleid=3327428;kvteamid=142;kvmatchid=;kvsectionid=7:1;cookie=info;" border="0">
</a>
</noscript>                </div>
            </div>
        </td>
    </tr>
</table>

  
    
  



</div>
      <div id='contentBackground'>
          <div id="page-content">

            <div id="middle_wrapper"  >

            </div>

                <div id="cookie_crumb_div">
    <div class="left">
        <a href="/it/news/7/calciomercato"><span class="last">Calciomercato</span></a>    </div>

    <div class="right">
        <!-- Breadcrumbing Sponsor -->    </div>
    <div class="clear">&nbsp;</div>
</div>

    <div id="ad970x40Module">
                
<!-- Begin header-strip AdTag -->
<div id="ad970x40"><script language="JavaScript">
                            if (typeof ADTECH_showAd === "function") {
                                ADTECH_showAd("0", document, true);
                            }
                        </script></div><script>
                        /* Centralise vertically ad if it is wider than wrapper width (970px) */
                        $(document).ready( function() {
                            var wrapper       = $("#ad970x40Module"),
                                wrapper_width = wrapper.outerWidth(),
                                ad_width      = Math.max.apply(null, wrapper.find(":not(script,noscript)").map( function() { return $(this).outerWidth() } ).get());

                            if (ad_width > wrapper_width) {
                                wrapper.css({ "position" :  "relative" });
                                wrapper.css({ "left"     : -1 * ((ad_width - wrapper_width) / 2) });
                            }
                        });
                        </script>
<!-- End header-strip AdTag -->
            </div>

				<div id="l_ad_950" class="hidden">
									</div><!-- #l_ad_950 -->

                   <div id="leftModules">
                          
<div id="article_page_wrapper">
    <div id="article_headline">
<input type="hidden" value="Prossimo" name="nextString" id="nextString" />
<input type="hidden" value="Precedente" name="prevString" id="prevString" />
    <h1>La Fiorentina aspetta Berbatov: c'è l'offerta al Manchester United. Per la difesa spunta Orban...</h1>
    <h2>L'attaccante bulgaro è il sogno della famiglia Della Valle: 4 milioni ai Red Devils, biennale da oltre 3 per il calciatore. Si tratta. Possibile scambio Camporese-Tomovic.</h2>
    <div class="articleDate">
        <h4>24/ago/2012 10.50.00</h4>

  
        <div class="addthis_toolbox">
            <a class="addthis_button_email"><img src="http://i1.goal.com/web/goal/2012.10.02-v1/images/default/news/email_icon_02.gif" /></a>
            <a class="addthis_button_print"><img src="http://i1.goal.com/web/goal/2012.10.02-v1/images/default/news/print_icon_02.gif" /></a>
            <script type="text/javascript" src="http://s7.addthis.com/js/250/addthis_widget.js#username=goal"></script>
        </div>
        <div class="clear"></div>
    </div>
    <h3>    </h3>
</div>

    <!-- google_ad_section_start -->
    <div class="moreOnLinks">
    
        <div id="article_correlations">
            <span id="article_related_links_heading">Altro su&nbsp;:&nbsp;</span>
            <a href="/it/teams/italy/142/fiorentina">Fiorentina</a>, <a href="/it/people/bulgaria/2320/dimitar-berbatov">Dimitar Berbatov</a>        </div>
    </div>


<div id="article_detail_block">
    <div class="social_media">

        <!-- widget:sharebar -->
<div class="widget sharebar" id="goal-widget-sharebar-1">
    <div class="buttons" id="gigya-goal-widget-sharebar-1"></div>
    <div class="buttons" id="custom-goal-widget-sharebar-1">
            </div>
    <br class="clear" />
</div>

    <script type="text/javascript">
        gigya.socialize.showShareBarUI({
            containerID:   "gigya-goal-widget-sharebar-1",
            shareButtons:  "facebook-like,twitter-tweet,google-plusone",
            showCounts:    "top",
            userAction:     new gigya.socialize.UserAction(),
            onSendDone:     function(data) {
                // SiteCatalyst tracking
                s.eVar13 = data.providers;
            }
        });
    </script>
<!-- /widget:sharebar, time:0.00051689147949219s, cache:no -->
                    <div class="goal_comment_count">
                <div class="bubble">
                                    </div>
                <a class="comments_text" href="#comments">
                    Commenti                </a>
            </div>
        
            <div id="gigya_reaction_bar">
                <div id="gigya_reaction_bar_awesome"></div>
                <div id="gigya_reaction_bar_dislike"></div>
            </div>


        <!-- widget:gigyareactions -->
<script type="text/javascript">
$(function() {
    gigya.socialize.showReactionsBarUI({
        'containerID':'gigya_reaction_bar',
        'showTermsLink':false,
        'hideGigyaLink':true,
        'multipleReactions':false,
        'barID':'article_3327428',
        'bodytext':'Share it on your favorite social networks:',
        'showCounts':'top',
        'showAlwaysShare':'unchecked',
        'promptShare':true,
        'userAction':(function() {
            var action = new gigya.socialize.UserAction();
            action.setTitle("Viola, Berbatov e Orban le ciliegine?");
            action.setLinkBack('http://www.goal.com/it/news/7/calciomercato/2012/08/24/3327428/la-fiorentina-aspetta-berbatov-c%C3%A8-lofferta-al-manchester');
            action.setDescription("L'attaccante bulgaro è il sogno della famiglia Della Valle: 4 milioni ai Red Devils, biennale da oltre 3 per il calciatore. Si tratta. Possibile scambio Camporese-Tomovic.");
            action.addMediaItem({"type":"image","src":"http://u.goal.com/205100/205124_news.jpg"});
            return action;
        }()),
        'reactions': [{"text":"Bello","ID":"awesome","iconImgUp":"http://i2.goal.com/web/goal/2012.10.02-v1/images/default/gigya/awesome_up.png","iconImgOver":"http://i2.goal.com/web/goal/2012.10.02-v1/images/default/gigya/awesome_down.png","headerText":"Penso che sia fantastico - Viola, Berbatov e Orban le ciliegine?","bodyText":"L'attaccante bulgaro \u00e8 il sogno della famiglia Della Valle: 4 milioni ai Red Devils, biennale da oltre 3 per il calciatore. Si tratta. Possibile scambio Camporese-Tomovic."},{"text":"Brutto","ID":"dislike","iconImgUp":"http://i1.goal.com/web/goal/2012.10.02-v1/images/default/gigya/dislike_up.png","iconImgOver":"http://i1.goal.com/web/goal/2012.10.02-v1/images/default/gigya/dislike_down.png","headerText":"Non mi piace - Viola, Berbatov e Orban le ciliegine?","bodyText":"L'attaccante bulgaro \u00e8 il sogno della famiglia Della Valle: 4 milioni ai Red Devils, biennale da oltre 3 per il calciatore. Si tratta. Possibile scambio Camporese-Tomovic."}]    });
});
</script>
<!-- /widget:gigyareactions, time:0.00043606758117676s, cache:no -->
    </div> <!-- end social_media div -->

    <div class="clear"></div>
</div>


<div id="large_article_image">
    <img alt="Lucas Orban - River Plate" src="http://u.goal.com/205100/205124hp2.jpg" />
    <div class="caption">Getty</div>
</div>
<div class="KonaBody" id="article_content">
    <span id="divAdnetKeyword">
    La <a href="http://www.goal.com/it/teams/italy/142/fiorentina" target="_blank"><strong>Fiorentina</strong> </a>aspetta il bomber: la trattativa con il <a href="http://www.goal.com/it/teams/italy/142/fiorentina" target="_blank"><strong>Manchester United</strong></a> per <strong>Dimitar Bervatov</strong> &egrave; calda. Solo un sogno? Qualcosa di pi&ugrave;. Per ingannare l&rsquo;attesa il direttore sportivo Daniele Prad&eacute; cerca rinforzi in difesa. Il nome nuovo &egrave; Orban del Tigre, possibile scambio Camporese-Tomovic con il <a href="http://www.goal.com/it/teams/italy/174/genoa" target="_blank">Genoa </a>.<br /><div class="ap_relatedLinksBox"> <div>Leggi anche...</div> <div class='row'><ul><li><a href="/it/news/7/calciomercato/2012/08/23/3325152/berbatov-bendtner-quagliarella-e-borriello-chi-rinforzer%C3%A0" >Fiorentina, Berbatov balza in pole</a></li><li><a href="/it/news/7/calciomercato/2012/08/21/3320958/fiorentina-%C3%A8-lisandro-lopez-il-nome-giusto-per-lattacco" >Fiorentina, parte l'assalto a Lisandro</a></li></ul><div class="clear"></div></div><div class='row'><ul><li><a href="/it/news/7/calciomercato/2012/08/21/3320858/la-fiorentina-non-si-piega-jovetic-resta-no-ai-30-milioni-di" >La Viola dice no al City: Jovetic resta?</a></li><li><a href="/it/news/1942/esclusiveinterviste/2012/08/20/3319393/manchester-city-allassalto-di-jovetic-trattativa-in-stato" >Assalto City a Jojo, 30M alla Fiorentina</a></li></ul><div class="clear"></div></div></div><div class="betting-widget-windrawwin" title="">
    <table class="hidden" data-bookmaker="BetClic">
    <tr>
    <td class="bet">
        <span>Punta:</span>
        <select data-role="none"  onchange="var _tmp = function(el) {var selectedValue = $(el).val();var widget = $(el).parent().parent();var winHome = $(widget).find('.winHome span.rate');$(winHome).html( Goal.roundNumber(($(winHome).attr('data-rate') * selectedValue),2).toFixed(2) );var draw = $(widget).find('.draw span.rate');$(draw).html( Goal.roundNumber(($(draw).attr('data-rate') * selectedValue),2).toFixed(2) );var winAway = $(widget).find('.winAway span.rate');$(winAway).html( Goal.roundNumber(($(winAway).attr('data-rate') * selectedValue),2).toFixed(2) );}(this);">
                <option value="5">5&#8364;</option>
                <option value="10" selected="selected">10&#8364;</option>
                <option value="20">20&#8364;</option>
                <option value="50">50&#8364;</option>
                <option value="100">100&#8364;</option>
            </select>    </td>
    <td class="returns">
        <span>Vinci:</span>
    </td>
    <td class="winHome odds">
        <span class="href" onclick="Goal.widget('betting').trackEvent('click', { bookmaker: 'BetClic', widgetType: 'windrawwin-random'}); window.open('http://www.betclic.it/partner.aspx?p=GLC3&z=c33', 'Betting'); return false;">
            <span class="name">Fiorentina</span>
            <span class="currency">&#8364;</span><span class="rate" data-rate="1.65">16.50</span>
        </span>
    </td>
    <td class="draw odds">
        <span class="href" onclick="Goal.widget('betting').trackEvent('click', { bookmaker: 'BetClic', widgetType: 'windrawwin-random'}); window.open('http://www.betclic.it/partner.aspx?p=GLC3&z=c33', 'Betting'); return false;">
            Pari            <span class="currency">&#8364;</span><span class="rate" data-rate="3.50">35.00</span>
        </span>
    </td>
    <td class="winAway odds">
        <span class="href" onclick="Goal.widget('betting').trackEvent('click', { bookmaker: 'BetClic', widgetType: 'windrawwin-random'}); window.open('http://www.betclic.it/partner.aspx?p=GLC3&z=c33', 'Betting'); return false;">
            <span class="name">Bologna</span>
            <span class="currency">&#8364;</span><span class="rate" data-rate="5.50">55.00</span>
        </span>
    </td>
    <td>
        <img onclick="Goal.widget('betting').trackEvent('click', { bookmaker: 'BetClic', widgetType: 'windrawwin-random'}); window.open('http://www.betclic.it/partner.aspx?p=GLC3&z=c33', 'Betting'); return false;" class="bookmaker" src="http://i1.goal.com/web/goal/2012.10.02-v1/images/betting/betclic_w.png" alt="BetClic"/>
    </td>
    </tr>
    </table>
    </div>

<script type="text/javascript">
    $(document).ready(function() {
        Goal.widget('betting').rotator( 'windrawwin-random', $('.betting-widget-windrawwin').find('table') );
    });
</script>
<br />Entusiasmo travolgente. Dopo due campionati difficili i tifosi viola credono di nuovo nel progetto della famiglia <strong>Della Valle</strong>. Gran mercato, tanti rinforzi di spessore. Manca solo il botto in attacco: Berbatov, in uscita dallo United, &egrave; il prescelto. Si tratta di un&rsquo;attaccante vero, potente, in grado di far fare il salto di qualit&agrave; a tutta la squadra. In Inghilterra &egrave; in esubero, a Firenze lo aspettano: quattro milioni ai Red Devils e un biennale da tre pi&ugrave; bonus per il bulgaro. Che ci pensa su.<br /><br />La concorrenza per Dimitar per&ograve; non manca, sottolinea la 'Gazzetta dello sport'. Ecco perch&eacute; Prad&egrave; tiene calde le alternative:<strong> Lisandro Lopez</strong> del Lione, il pi&ugrave; difficile;<strong> Niklas Bendtner</strong> dell&rsquo;Arsenal, forse il pi&ugrave; costoso; <strong>Nen&egrave;</strong> del Paris Saint-Germain, il meno affascinante. In Italia ci sarebbero le piste <strong>Quagliarella</strong> e <strong>Borriello</strong>: lo juventino e il romanista tuttavia non sembrano entusiasti del trasferimento in viola.<br /><br />Nome nuovo per la difesa. Chi &egrave;? <strong>Orban</strong>, terzino sinistro del <strong>Tigre</strong>. Uno sconosciuto ma in Argentina giurano sulle sue qualit&agrave;. E non a caso tirano sul prezzo: almeno 3 milioni di euro. La Fiorentina valuta e chiede informazioni al <strong>Genoa</strong> per <strong>Tomovic</strong>. L&rsquo;ipotesi di uno scambio di compropriet&agrave; con <strong>Camporese</strong> &ndash; assicura la &lsquo;Gazza&rsquo; &ndash; non &egrave; fantacalcio.<br /><br /> </span>
<div class="clear"></div>

</div>  <!--  End article Body -->

<!-- betting default-2 -->
<div class="betting-widget-default-2 betting-widget-default-1" title="">
    <table>
                    <tr class="hidden" data-bookmaker="BetClic">
                <td>
                    <span class="href BetClic" onclick="Goal.widget('betting').trackEvent('click', {'bookmaker': 'BetClic', 'widgetType': 'default-2'}); window.open('http://www.betclic.it/partner.aspx?p=GLC3&z=c23', 'Betting');">Registrati su Betclic e ottieni una scommessa gratuita fino a 60 €</span>
                </td>
                <td>
                    <em class="href" onclick="Goal.widget('betting').trackEvent('click', {'bookmaker': 'BetClic', 'widgetType': 'default-2'}); window.open('http://www.betclic.it/partner.aspx?p=GLC3&z=c23', 'Betting');">
                        <img src="http://i2.goal.com/web/goal/2012.10.02-v1/images/betting/betclic_w.png" alt="BetClic" class="bookmaker"/>
                    </em>
                </td>
            </tr>
                                <tr class="hidden" data-bookmaker="Lottomatica">
                <td>
                    <span class="href Lottomatica" onclick="Goal.widget('betting').trackEvent('click', {'bookmaker': 'Lottomatica', 'widgetType': 'default-2'}); window.open('http://ad.doubleclick.net/clk;243287553;66973946;c?https://www.totosi.it/scommesse/home.do', 'Betting');">Registrati su Totosi e ottieni una scommessa gratuita fino a 50 €</span>
                </td>
                <td>
                    <em class="href" onclick="Goal.widget('betting').trackEvent('click', {'bookmaker': 'Lottomatica', 'widgetType': 'default-2'}); window.open('http://ad.doubleclick.net/clk;243287553;66973946;c?https://www.totosi.it/scommesse/home.do', 'Betting');">
                        <img src="http://i2.goal.com/web/goal/2012.10.02-v1/images/betting/lottomatica_w.png" alt="Lottomatica" class="bookmaker"/>
                    </em>
                </td>
            </tr>
                        </table>
</div>

<script type="text/javascript">
    $(document).ready(function() { 
        Goal.widget('betting').rotator( 'default-2', $('.betting-widget-default-2 table tr') );
    });
</script>

<!-- widgets for likes and tweets -->

<div id='article_likes_and_tweets'>
       <div class='twit_box'>
         <!-- widget:sharebar -->
<div class="widget sharebar" id="goal-widget-sharebar-3">
    <div class="buttons" id="gigya-goal-widget-sharebar-3"></div>
    <div class="buttons" id="custom-goal-widget-sharebar-3">
            </div>
    <br class="clear" />
</div>

    <script type="text/javascript">
        gigya.socialize.showShareBarUI({
            containerID:   "gigya-goal-widget-sharebar-3",
            shareButtons:  "twitter",
            showCounts:    "right",
            userAction:     new gigya.socialize.UserAction(),
            onSendDone:     function(data) {
                // SiteCatalyst tracking
                s.eVar13 = data.providers;
            }
        });
    </script>
<!-- /widget:sharebar, time:0.00017213821411133s, cache:no -->                  <div class="socialText">
           <a href="http://twitter.com/Goalitalia" >  Segui Goal.com su Twitter</a>
         </div>
                  <div class="clear"></div>
    </div>

    <div class='fb_box'>
         <!-- widget:sharebar -->
<div class="widget sharebar" id="goal-widget-sharebar-4">
    <div class="buttons" id="gigya-goal-widget-sharebar-4"></div>
    <div class="buttons" id="custom-goal-widget-sharebar-4">
            </div>
    <br class="clear" />
</div>

    <script type="text/javascript">
        gigya.socialize.showShareBarUI({
            containerID:   "gigya-goal-widget-sharebar-4",
            shareButtons:  "facebook",
            showCounts:    "right",
            userAction:     new gigya.socialize.UserAction(),
            onSendDone:     function(data) {
                // SiteCatalyst tracking
                s.eVar13 = data.providers;
            }
        });
    </script>
<!-- /widget:sharebar, time:0.00014615058898926s, cache:no -->                  <div class="socialText">
              <a href="http://www.facebook.com/Goal.Italia" >Segui Goal.com su Facebook</a>
         </div>
                 <div class="clear"></div>
    </div>
    </div>

<div class="clear"></div>
    <!-- google_ad_section_end -->

                <div id="googleAdwordsModule" class="module"></div><div class="clear"></div>
        <a name="comments"></a>
    <div id="article-comments">
    <!-- widget:gigyacomments -->
<div id="goal-widget-gigyacomments-5"></div>
<script type="text/javascript">
gigya.socialize.showCommentsUI({
    containerID: "goal-widget-gigyacomments-5",
    categoryID: "it",
    streamID: "article_3327428",
    onLoad: function() { $('.goal_comment_count .bubble').html( parseInt($('.gig-comments-commentList-header').text().match(/[0-9]+/))); },
    width: "600"
});
</script>
<!-- /widget:gigyacomments, time:0.00037407875061035s, cache:no -->    </div>
    <script>
        if (typeof hideMashLogic == 'undefined' || (!hideMashLogic)){
            document.write('<scri' + 'pt src="http://mashlogic.com/loader.min.js"><\/scr' + 'ipt>');
            document.write('<scri' + 'pt src="http://mashlogic.com/brands/embed/goal_mc.js"><\/scr' + 'ipt>');
        }
    </script>
</div>
<div class="clear">&nbsp;</div>
                   </div>

                   <div id="rightModules">
                        <div class="ad300x250Module">
    <script language="javascript">
document.write('<scr'+'ipt language="javascript1.1" ' +' src="http://adserver.adtech.de/addyn|3.0|327.0|3555309|0|170|ADTECH;cookie=info;alias=it7TM;key=news:article+3327428+7+1;kvenv=production;kvpagetype=news:article;kvarticleid=3327428;kvteamid=142;kvmatchid=;kvsectionid=7:1;loc=100;target=_blank;sub1=[subst];grp=1285197803;misc=1285197803"></scri'+'pt>');
</script>
<noscript>
<a href="http://adserver.adtech.de/adlink|3.0|327.0|3555309|0|170|ADTECH;loc=300;alias=it7TM;key=news:article+3327428+7+1;kvenv=production;kvpagetype=news:article;kvarticleid=3327428;kvteamid=142;kvmatchid=;kvsectionid=7:1;cookie=info;" target="_blank">
<img src="http://adserver.adtech.de/adserv|3.0|327.0|3555309|0|170|ADTECH;loc=300;alias=it7TM;key=news:article+3327428+7+1;kvenv=production;kvpagetype=news:article;kvarticleid=3327428;kvteamid=142;kvmatchid=;kvsectionid=7:1;cookie=info;" border="0">
</a>
</noscript></div>
<!-- widget:eplayer -->










<!-- /widget:eplayer, time:0.00023102760314941s, cache:no --><div class="predictor_wrapper module">
    <div class="promoted_matches_prediction">
        <h4 class="not_predicted"><span>Fai il tuo pronostico</span> </h4>
        <h4 class="predicted hidden"><span>Fiorentina - Bologna</span></a></h4>

        <ul class="matches">
                                    </ul><!-- .matches -->

        <div class="match not_predicted">
            <div class="team team_1">
                <img src="http://i1.goal.com/web/goal/2012.10.02-v1/images/default/team/150x150/1259.png" width="44" height="44" alt="" />
                <span>Fiorentina</span>
            </div><!-- .team -->
            <form name="predict_match">
                <input type="hidden" name="matchId" value="88100"/>
                <fieldset>
                    <div class="select first_child">
                        <div class="value value_1">-</div>
                        <select name="score_team1" class="result_1">
                            <option value="-">-</option>
                                                        <option value="0">0</option>
                                                        <option value="1">1</option>
                                                        <option value="2">2</option>
                                                        <option value="3">3</option>
                                                        <option value="4">4</option>
                                                        <option value="5">5</option>
                                                        <option value="6">6</option>
                                                        <option value="7">7</option>
                                                        <option value="8">8</option>
                                                    </select>
                    </div>
                    <div class="select last_child">
                        <div class="value value_2">-</div>
                        <select name="score_team2" class="result_2">
                            <option value="-">-</option>
                                                        <option value="0">0</option>
                                                        <option value="1">1</option>
                                                        <option value="2">2</option>
                                                        <option value="3">3</option>
                                                        <option value="4">4</option>
                                                        <option value="5">5</option>
                                                        <option value="6">6</option>
                                                        <option value="7">7</option>
                                                        <option value="8">8</option>
                                                    </select>
                    </div>
                </fieldset>
                <p>
                    <input type="submit" name="some_name" value="PRONOSTICA" class="submit" />
                </p>
            </form>
            <div class="team team_2">
                <img src="http://i1.goal.com/web/goal/2012.10.02-v1/images/default/team/150x150/1249.png" width="44" height="44" alt="" />
                <span>Bologna</span>
            </div><!-- .team -->
        </div><!-- .match -->

        <div class="betting">
            <h6>Pronostico inserito</h6>
            <div class="widget"></div>
        </div><!-- .betting -->

        <h5>Le puntate più popolari</h5>
        <ul class="popular">
                        <li>
                <strong>Fiorentina 2-0 Bologna</strong>
                <dl><dd><span style="left: 30px"></span><em>30 &#37;</em></dd></dl>
                <div id="widget_13492080284961" class="betting-widget-predictor-simplified" title="">
        <div class="bookmaker_wrapper hidden" data-bookmaker="BetClic">
        <small>odds: 7.00</small>
        <a href="#" onclick="Goal.widget('betting').trackEvent('click', { bookmaker: 'BetClic', widgetType: 'predictor-simplified'}); window.open('http://www.betclic.it/partner.aspx?p=GLC3&z=c23', 'Betting'); return false;">Scommetti ora!</a>
    </div>
    </div>

<script>
    $(document).ready( function() {
        Goal.widget('betting').rotator( 'predictor-simplified', $('#widget_13492080284961').find('.bookmaker_wrapper') );
    });
</script>
            </li>
                        <li>
                <strong>Fiorentina 3-0 Bologna</strong>
                <dl><dd><span style="left: 17px"></span><em>16.67 &#37;</em></dd></dl>
                <div id="widget_13492080285032" class="betting-widget-predictor-simplified" title="">
        <div class="bookmaker_wrapper hidden" data-bookmaker="BetClic">
        <small>odds: 13.00</small>
        <a href="#" onclick="Goal.widget('betting').trackEvent('click', { bookmaker: 'BetClic', widgetType: 'predictor-simplified'}); window.open('http://www.betclic.it/partner.aspx?p=GLC3&z=c23', 'Betting'); return false;">Scommetti ora!</a>
    </div>
    </div>

<script>
    $(document).ready( function() {
        Goal.widget('betting').rotator( 'predictor-simplified', $('#widget_13492080285032').find('.bookmaker_wrapper') );
    });
</script>
            </li>
                        <li>
                <strong>Fiorentina 3-1 Bologna</strong>
                <dl><dd><span style="left: 10px"></span><em>10 &#37;</em></dd></dl>
                <div id="widget_13492080285117" class="betting-widget-predictor-simplified" title="">
        <div class="bookmaker_wrapper hidden" data-bookmaker="BetClic">
        <small>odds: 12.00</small>
        <a href="#" onclick="Goal.widget('betting').trackEvent('click', { bookmaker: 'BetClic', widgetType: 'predictor-simplified'}); window.open('http://www.betclic.it/partner.aspx?p=GLC3&z=c23', 'Betting'); return false;">Scommetti ora!</a>
    </div>
    </div>

<script>
    $(document).ready( function() {
        Goal.widget('betting').rotator( 'predictor-simplified', $('#widget_13492080285117').find('.bookmaker_wrapper') );
    });
</script>
            </li>
                    </ul><!-- .popular -->

    </div><!-- .prediction -->

    <script>
        $(document).ready(function() {
            var form = $('.promoted_matches_prediction').find('form[name=predict_match]');
            var predict = form.find('.submit');
            var result_1 = form.find('.result_1');
            var result_2 = form.find('.result_2');

            form.find('.select').change(function(e) {
                var res_1, res_2;

                res_1 = (result_1.val() != '-') ? true : false;
                res_2 = (result_2.val() != '-') ? true : false;

                (res_1 && res_2) ? predict.addClass('on') : predict.removeClass('on');

                form.find('.value_1').text(result_1.val());
                form.find('.value_2').text(result_2.val());
            }).change();

            form.submit(function(e) {
                e.preventDefault();
                var submit = $(this).find('.submit');
                if (submit.hasClass('on')) {
                    submit.removeClass('on');
                    $('.betting').addClass('on');
                    $.get('/it/predict/match', $(this).serialize());
                    $('.betting').find('.widget').load('/it/predict/betting-widget', $(this).serialize());
                    $(this).find('.select').addClass('off');
					$(this).find('.select').find('select').attr('disabled','disabled');
                }
            });

            $('.more_match').click(function(e) {
                e.preventDefault();
                var _this = $(this);
                $('.matches').slideToggle(function() {
                    _this.toggleClass('active');
                });
            });

            $('.promoted_matches_prediction').find('.matches').find('a').click(function(e) {
                e.preventDefault();
                var match_id = $(this).attr('data-match_id');
                $('.predictor_wrapper').load('/it/predictor/reload', {
                    selected: match_id,
                    matches_ids: [88100]                });
            });

            if($.cookie('mp_88100')) { //check MatchPredictor cookie for this match
                $('.not_predicted').hide();
                $('.predicted').removeClass('hidden');
            }
        }); // end of document ready
    </script>
</div>


<div id="articlesModule" class="module">
    <div class="moduleTab">
        <div class="tabText">Dentro Goal.com</div>
        <div class="tabControls"></div> <?/* empty because this one does not have controls */?>
        <div class="clear"></div>
    </div>
    <div class="tabTabs">
        <ul>
            <li class='tabLi selected' ><a href="">Speciali</a></li>
            <li class='tabLi'><a href="">Più Letti</a></li>
            <li class='tabLi' ><a href="">Più Commentati</a></li>
        </ul>
    </div>

   <!--  Most read -->
   <div class="articlesList">
    

        <div id="specials_list" class="ap">
        <ol>
                          <li>
                <div class="specials_item">

                    <div class="specials_text">
                        <a href="/it/news/1/main/2012/10/02/3401477/oggi-su-goalcom-le-nostre-dirette-torna-la-champions-stasera" onmouseout="javascript:$('#special-0').css('text-decoration', '');" onmouseover="javascript:$('#special-0').css('text-decoration', 'underline');" title="Oggi LIVE su Goal - Juve, Barça e il Live Champions"><img alt="Oggi LIVE su Goal - Juve, Barça e il Live Champions" src="http://u.goal.com/214700/214750_thumb.jpg" title="Oggi LIVE su Goal - Juve, Barça e il Live Champions" /></a>
                        <a href="/it/news/1/main/2012/10/02/3401477/oggi-su-goalcom-le-nostre-dirette-torna-la-champions-stasera" id="special-0" title="Oggi LIVE su Goal - Juve, Barça e il Live Champions">
                          Oggi LIVE su Goal - Juve, Barça e il Live Champions                        </a>
                        <p> .</p>
                    </div>

                    <div class="clear"> </div>
                </div>
              </li>
                          <li>
                <div class="specials_item">

                    <div class="specials_text">
                        <a href="/it/news/787/editorialiopinioni/2012/10/02/3418433/editoriale-ritmo-indiavolato-e-organizzazione-perfetta" onmouseout="javascript:$('#special-1').css('text-decoration', '');" onmouseover="javascript:$('#special-1').css('text-decoration', 'underline');" title="Editoriale - Juve, puoi essere la sorpresa in Europa"><img alt="Editoriale - Juve, puoi essere la sorpresa in Europa" src="http://u.goal.com/211700/211791_thumb.jpg" title="Editoriale - Juve, puoi essere la sorpresa in Europa" /></a>
                        <a href="/it/news/787/editorialiopinioni/2012/10/02/3418433/editoriale-ritmo-indiavolato-e-organizzazione-perfetta" id="special-1" title="Editoriale - Juve, puoi essere la sorpresa in Europa">
                          Editoriale - Juve, puoi essere la sorpresa in Europa                        </a>
                        <p> .</p>
                    </div>

                    <div class="clear"> </div>
                </div>
              </li>
                          <li>
                <div class="specials_item">

                    <div class="specials_text">
                        <a href="/it/news/787/editorialiopinioni/2012/10/02/3418376/editoriale-n%C3%A8-guarin-n%C3%A8-silvestre-n%C3%A8-palacio-n%C3%A8-pereira-la" onmouseout="javascript:$('#special-2').css('text-decoration', '');" onmouseover="javascript:$('#special-2').css('text-decoration', 'underline');" title="Editoriale - Inter paradossale: meglio senza acquisti"><img alt="Editoriale - Inter paradossale: meglio senza acquisti" src="http://u.goal.com/208400/208489_thumb.jpg" title="Editoriale - Inter paradossale: meglio senza acquisti" /></a>
                        <a href="/it/news/787/editorialiopinioni/2012/10/02/3418376/editoriale-n%C3%A8-guarin-n%C3%A8-silvestre-n%C3%A8-palacio-n%C3%A8-pereira-la" id="special-2" title="Editoriale - Inter paradossale: meglio senza acquisti">
                          Editoriale - Inter paradossale: meglio senza acquisti                        </a>
                        <p> .</p>
                    </div>

                    <div class="clear"> </div>
                </div>
              </li>
                          <li>
                <div class="specials_item">

                    <div class="specials_text">
                        <a href="/it/news/787/editorialiopinioni/2012/10/02/3418128/editoriale-con-pato-robinho-e-montolivo-al-milan-serve-un" onmouseout="javascript:$('#special-3').css('text-decoration', '');" onmouseover="javascript:$('#special-3').css('text-decoration', 'underline');" title="Editoriale - Milan, con Pato e Robinho serve cambiare"><img alt="Editoriale - Milan, con Pato e Robinho serve cambiare" src="http://u.goal.com/202000/202020_thumb.jpg" title="Editoriale - Milan, con Pato e Robinho serve cambiare" /></a>
                        <a href="/it/news/787/editorialiopinioni/2012/10/02/3418128/editoriale-con-pato-robinho-e-montolivo-al-milan-serve-un" id="special-3" title="Editoriale - Milan, con Pato e Robinho serve cambiare">
                          Editoriale - Milan, con Pato e Robinho serve cambiare                        </a>
                        <p> .</p>
                    </div>

                    <div class="clear"> </div>
                </div>
              </li>
                          <li>
                <div class="specials_item">

                    <div class="specials_text">
                        <a href="/it/news/3679/video/2012/10/01/3414226/vuoi-vincere-un-ipad-da-16gb-iscriviti-adesso-al-nostro" onmouseout="javascript:$('#special-4').css('text-decoration', '');" onmouseover="javascript:$('#special-4').css('text-decoration', 'underline');" title="Vuoi vincere un iPad da 16GB? Iscriviti adesso!"><img alt="Vuoi vincere un iPad da 16GB? Iscriviti adesso!" src="http://u.goal.com/215100/215107_thumb.jpg" title="Vuoi vincere un iPad da 16GB? Iscriviti adesso!" /></a>
                        <a href="/it/news/3679/video/2012/10/01/3414226/vuoi-vincere-un-ipad-da-16gb-iscriviti-adesso-al-nostro" id="special-4" title="Vuoi vincere un iPad da 16GB? Iscriviti adesso!">
                          Vuoi vincere un iPad da 16GB? Iscriviti adesso!                        </a>
                        <p> .</p>
                    </div>

                    <div class="clear"> </div>
                </div>
              </li>
                    </ol>
        </div>



        <div class="clear"></div>

<div class="clear">&nbsp;</div>   </div>



    <div class="articlesList" style='display:none;'>
      
    <ol>

        
                 <li><div class="articleInfo">
          <div class="articleText">
           <a href="/it/news/2/serie-a/2012/09/30/3406888/probabili-formazioni-serie-a-6%C2%AA-giornata-hernanes-stringe-i">Probabili Formazioni Serie A, 6ª giornata</a>
           </div>
                    </div></li>
                 <li><div class="articleInfo">
          <div class="articleText">
           <a href="/it/news/2/serie-a/2012/09/29/3412618/juventus-roma-4-1-la-vecchia-signora-passeggia-i-giallorossi">Juventus-Roma 4-1: Gara senza storia </a>
           </div>
                    </div></li>
                 <li><div class="articleInfo">
          <div class="articleText">
           <a href="/it/news/2/serie-a/2012/09/30/3414120/sampdoria-napoli-0-1-battaglia-a-marassi-azzurri-indenni-e">Sampdoria-Napoli 0-1: Sempre Cavani</a>
           </div>
                    </div></li>
                 <li><div class="articleInfo">
          <div class="articleText">
           <a href="/it/news/2/serie-a/2012/10/01/3415885/la-roma-%C3%A8-una-polveriera-screzio-de-rossi-zeman-dopo-il-ko">Roma, screzio De Rossi-Zeman </a>
           </div>
                    </div></li>
                 <li><div class="articleInfo">
          <div class="articleText">
           <a href="/it/news/787/editorialiopinioni/2012/09/30/3413997/editoriale-zemanlandia-non-esiste-pi%C3%B9-alla-roma-serviva-un">Editoriale - Zemanlandia non esiste più</a>
           </div>
                    </div></li>
        
    
    </ol>


    </div>

<!--  most commented -->
   <div class="articlesList" style='display:none;' >
                    <!-- widget:gigyamostcommented -->
<div class="most-commented-widget" id="goal-widget-gigyamostcommented-7"></div>
<script type="text/javascript">
    gigya.comments.getTopStreams({
        categoryID: 'it',
        maxStreamAge: 7,
        limit: 5,
        callback: function(result) {
            var container = $('#'+'goal-widget-gigyamostcommented-7');
            var list = [];
            if (result.streams.length) {
                $.each(result.streams, function(index, stream) {
                    if(stream.streamURL) {
                        list.push('<li><div class="articleInfo"><div class="articleText"><a href="' + stream.streamURL+ '">' + stream.streamTitle + '</a></div><div class="articleComments">' + stream.commentCount + '</div></div></li>');
                    }
                });
            } else {
                container.parents('.frame').hide();
            }
            container.html('<ol>' + list.join('') + '</ol>');
        }
    });
</script>
<!-- /widget:gigyamostcommented, time:0.00027704238891602s, cache:no -->            </div>

</div>

 <div class="clear"></div>
<div class="ad300x250Module">
    <script language="javascript">
document.write('<scr'+'ipt language="javascript1.1" ' +' src="http://adserver.adtech.de/addyn|3.0|327.0|3555309|0|170|ADTECH;cookie=info;alias=it7BM;key=news:article+3327428+7+1;kvenv=production;kvpagetype=news:article;kvarticleid=3327428;kvteamid=142;kvmatchid=;kvsectionid=7:1;loc=100;target=_blank;sub1=[subst];grp=1285197803;misc=1285197803"></scri'+'pt>');
</script>
<noscript>
<a href="http://adserver.adtech.de/adlink|3.0|327.0|3555309|0|170|ADTECH;loc=300;alias=it7BM;key=news:article+3327428+7+1;kvenv=production;kvpagetype=news:article;kvarticleid=3327428;kvteamid=142;kvmatchid=;kvsectionid=7:1;cookie=info;" target="_blank">
<img src="http://adserver.adtech.de/adserv|3.0|327.0|3555309|0|170|ADTECH;loc=300;alias=it7BM;key=news:article+3327428+7+1;kvenv=production;kvpagetype=news:article;kvarticleid=3327428;kvteamid=142;kvmatchid=;kvsectionid=7:1;cookie=info;" border="0">
</a>
</noscript></div>
<div id="social_twitter-badge">
    <script src="http://widgets.twimg.com/j/2/widget.js"></script>
    <script>
    new TWTR.Widget({
    	  version: 2,
    	  type: 'profile',
    	  rpp: 5, // number of tweets to show
    	  interval: 6000,
    	  title: 'GoalItalia',
    	  subject: 'Latest Tweets',
    	  width: 300,
    	  height: 225,
    	  theme: {
    	    shell: {
    	      background: '#0090bc',
    	      color: '#ffffff'
    	    },
    	    tweets: {
    	      background: '#ffffff',
    	      color: '#3c3b3b',
    	      links: '#004276'
    	    }
    	  },
    	  features: {
    	    scrollbar: 1,
    	    loop: false,
    	    live: false,
    	    hashtags: true,
    	    timestamp: true,
    	    avatars: true,
    	    behavior: 'all'
    	  }
    	}).render().setUser('GoalItalia').start();
    </script>
</div>

<div class="ad-160x600">
    <div>
        <div id="ad160x600" style=""><script language="javascript">
document.write('<scr'+'ipt language="javascript1.1" ' +' src="http://adserver.adtech.de/addyn|3.0|327.0|3555310|0|154|ADTECH;cookie=info;alias=it7TS;key=news:article+3327428+7+1;kvenv=production;kvpagetype=news:article;kvarticleid=3327428;kvteamid=142;kvmatchid=;kvsectionid=7:1;loc=100;target=_blank;sub1=[subst];grp=1285197803;misc=1285197803"></scri'+'pt>');
</script>
<noscript>
<a href="http://adserver.adtech.de/adlink|3.0|327.0|3555310|0|154|ADTECH;loc=300;alias=it7TS;key=news:article+3327428+7+1;kvenv=production;kvpagetype=news:article;kvarticleid=3327428;kvteamid=142;kvmatchid=;kvsectionid=7:1;cookie=info;" target="_blank">
<img src="http://adserver.adtech.de/adserv|3.0|327.0|3555310|0|154|ADTECH;loc=300;alias=it7TS;key=news:article+3327428+7+1;kvenv=production;kvpagetype=news:article;kvarticleid=3327428;kvteamid=142;kvmatchid=;kvsectionid=7:1;cookie=info;" border="0">
</a>
</noscript></div>    </div>
</div>
                    <div class="clear"></div>
                   </div>


                <div class="clear"></div>
                                          
<div id="footer">

	    	<div class="footer_col_wrapper">

	        <div class="footer_col footer_menu">
				

<h6>Goal.com Italiano</h6>
<ul>
	<li><a href='/it/news/archive/1'>Notizie</a></li><li><a href=''>Editoriali</a></li><li><a href='http://www.goal.com/it/live-scores/fixtures?tab=all'>Live</a></li><li><a href='http://www.goal.com/it/news/7/calciomercato'>Calciomercato</a></li><li><a href='http://www.goal.com/it/news/2/serie-a'>Serie A</a></li><li><a href='http://www.goal.com/it/news/5/serie-b'>Serie B</a></li></ul>
<ul>
    <li><a href='http://www.goal.com/it/news/173/champions-league'>Champions League</a></li><li><a href='http://www.goal.com/it/news/171/europa-league'>Europa League</a></li><li><a href='http://www.goal.com/it/news/94/estero'>Calcio Estero</a></li><li><a href='http://www.goal.com/it/news/4557/mondiali-2014'>Brasile 2014</a></li><li><a href='http://www.goal.com/it/news/3431/scommesse'>Scommesse</a></li><li><a href='http://www.goal.com/it/news/3679/video'>Video</a></li></ul>			</div><!-- .footer_menu-->

			<div class="footer_col footer_iemc_editions">
				<h6>Goal.Com Editions</h6>
                <!-- Edition picker -->
                    <ul>
                    <li class="en"><a href="/en/">International</a></li>
                    <li class="en-us"><a href="/en-us/">America (EN)&#x200E;</a></li>
                    <li class="en-gb"><a href="/en-gb/">United Kingdom (EN)&#x200E;</a></li>
                    <li class="en-india"><a href="/en-india/">India (EN)&#x200E;</a></li>
                    <li class="en-ie"><a href="/en-ie/">Ireland (EN)&#x200E;</a></li>
                    <li class="en-my"><a href="/en-my/">Malaysia (EN)&#x200E;</a></li>
                    <li class="en-sg"><a href="/en-sg/">Singapore (EN)&#x200E;</a></li>
            </ul>
    <ul>
                    <li class="en-ca"><a href="/en-ca/">Canada (EN)&#x200E;</a></li>
                    <li class="en-au"><a href="/en-au/">Australia (EN)&#x200E;</a></li>
                    <li class="en-ng"><a href="/en-ng/">Nigeria (EN)&#x200E;</a></li>
                    <li class="en-gh"><a href="/en-gh/">Ghana (EN)&#x200E;</a></li>
                    <li class="en-ke"><a href="/en-ke/">Kenya (EN)&#x200E;</a></li>
                    <li class="en-za"><a href="/en-za/">South Africa (EN)&#x200E;</a></li>
                    <li class="es"><a href="/es/">España (ES)&#x200E;</a></li>
            </ul>
    <ul>
                    <li class="es-ar"><a href="/es-ar/">Argentina (ES)&#x200E;</a></li>
                    <li class="es-co"><a href="/es-co/">Colombia (ES)&#x200E;</a></li>
                    <li class="es-cl"><a href="/es-cl/">Chile (ES)&#x200E;</a></li>
                    <li class="es-mx"><a href="/es-mx/">México (ES)&#x200E;</a></li>
                    <li class="it"><a href="/it/">Italiano</a></li>
                    <li class="de"><a href="/de/">Deutsch</a></li>
                    <li class="fr"><a href="/fr/">Français</a></li>
            </ul>
    <ul>
                    <li class="br"><a href="/br/">Português</a></li>
                    <li class="nl"><a href="/nl/">Nederlands</a></li>
                    <li class="tr"><a href="/tr/">Türkçe</a></li>
                    <li class="id-ID"><a href="/id-ID/">Indonesian</a></li>
                    <li class="cn"><a href="/cn/">中文</a></li>
                    <li class="hk"><a href="/hk/">繁體中文</a></li>
                    <li class="kr"><a href="/kr/">한국어</a></li>
            </ul>
    <ul>
                    <li class="jp"><a href="/jp/">日本語</a></li>
                    <li class="th"><a href="/th/">ภาษาไทย</a></li>
                    <li class="iran"><a href="/iran/">فارسی</a></li>
                    <li class="ar"><a href="/ar/">العربية</a></li>
                    <li class="ar-eg"><a href="/ar-eg/">المصرية</a></li>
                    <li class="ar-sa"><a href="/ar-sa/">السعودية</a></li>
            </ul>
			</div><!-- .footer_iemc_editions -->

		</div><!-- .footer_col_wrapper -->

					<div class="footer_col footer_more">
				
<h6>Altro</h6>

<ul>
   	       <li>
			<a href="http://www.goal.com/it/info/1/main/2010/06/15/1743519/applicazione-mobile-goalcom">Mobile App</a>
		</li>
           <li>
			<a href="http://adv.goal.com/it/">Advertise</a>
		</li>
           <li>
			<a href="mailto:italydesk@goal.com?subject=Collaborazione">Collabora con noi</a>
		</li>
    </ul>			</div><!-- .footer_more -->
		   	
    <div id="footerText">
        Copyright © 2012 Goal.com Tutti i diritti riservati. Le informazioni contenute in Goal.com non possono essere pubblicate, trasmesse, riprodotte o ridistribuite senza autorizzazione scritta di Goal.com    </div>

    
    
    <div id="footerLinks" >
        <a href="/it/legal/privacy-policy">Tutela della Privacy</a> |
        <a href="/it/legal/terms-conditions">Condizioni di Utilizzo</a>|
        <a href="/it/contact">Contattaci</a>|
        <a href="/it/contact/about">Chi Siamo</a>
    </div>
    <div id="mediaSports">&nbsp;</div>
</div><!-- #footer -->

           </div>
     <!--  page content -->

     </div>
     <!--  content background -->

   </div>
   <!--  main -->



<script type="text/javascript" src="http://i2.goal.com/web/goal/2012.10.02-v1/js/default/news/article-merged.js"></script>
<script type="text/javascript">
    //<![CDATA[
$(document).ready(function()
{
    $.post("/service/entity/add-view", {gid : 22316322},
            function(data, textStatus)
            {
            },
            "json");
});
    //]]>
</script>
<script type="text/javascript">
    //<![CDATA[
google_ad_client = "pub-1138714610918520";google_ad_channel = "5145121388";google_ad_output = "js";google_max_num_ads = "3";google_ad_type = "text";google_feedback = "on";google_adtest = 'off';google_language = 'it';google_encoding = "utf8";    //]]>
</script>
<script type="text/javascript" src="http://pagead2.googlesyndication.com/pagead/show_ads.js"></script>
<script type="text/javascript" src="http://bit.ly/javascript-api.js?version=latest&amp;login=goalsoccer1&amp;apiKey=R_b977ffa1ea5feaaa7ba8bc44cf805e2c"></script>
<script type="text/javascript">
    //<![CDATA[
var s_account="goalglobal,goalitalian";    //]]>
</script>
<script type="text/javascript" src="http://i1.goal.com/web/goal/2012.10.02-v1/js/s_code.js"></script>
<script type="text/javascript">
    //<![CDATA[
if ($.cookie('cc') === 'DE') {
    document.write('<!-- Start Ad Break adserver tag --> <scr' + 'ipt type="text/javascript">ADSPANDABLE_PARAMS = { container : [\'article_content:id\'] }</scr' + 'ipt> <scr' + 'ipt type="text/javascript" src="http://files.adspdbl.com/publishers/goal-com/de/code.js"></scr' + 'ipt> <!-- End Ad Break adserver tag -->');
}    //]]>
</script>               <!-- START Google Analytics -->
               <script type="text/javascript">
               var _gaq = _gaq || [];
               _gaq.push(['_setAccount', 'UA-3459197-19']);
               _gaq.push(['_setDomainName', '.goal.com']);
               _gaq.push(['_trackPageview']);

               (function() {
                   var ga = document.createElement('script'); ga.type = 'text/javascript'; ga.async = true;
                   ga.src = ('https:' == document.location.protocol ? 'https://ssl' : 'http://www') + '.google-analytics.com/ga.js';
                   var s = document.getElementsByTagName('script')[0];
                   s.parentNode.insertBefore(ga, s);
                    })();
               </script>
               <!-- END Google Analytics --><!-- // WH Tracking pixel --><img src="http://serve.williamhill.com/promoLoadDisplay?member=goalcom&campaign=DEFAULT&channel=widget&zone=593986973&lp=0" height="1" width="1" style="width:1px;height:1px" /><!-- // End WH Tracking pixel -->
<!-- start Vibrant Media IntelliTXT script section -->
<script type="text/javascript" src="http://goal.uk.intellitxt.com/intellitxt/front.asp?ipid=40185"></script>
<!-- end Vibrant Media IntelliTXT script section -->


<!-- Begin LotaMe Tag -->
<script type="text/javascript" src="http://tags.crwdcntrl.net/c/412/cc.js"></script>
<script type="text/JavaScript">LOTCC.bcp();</script>
<!-- End LotaMe Tag -->

<script type="text/javascript">
(function() {
var em = document.createElement('script'); em.type = 'text/javascript'; em.async = true;
em.src = ('https:' == document.location.protocol ? 'https://me-ssl' : 'http://me-cdn') + '.effectivemeasure.net/em.js';
var s = document.getElementsByTagName('script')[0]; s.parentNode.insertBefore(em, s);
})();
</script>
<noscript>
<img src="//me.effectivemeasure.net/em_image" alt="" style="position:absolute; left:-5px;" />
</noscript>
<!-- Begin Sensis --><script type="text/javascript">jQuery(document).ready(function(){if (typeof MediaSmart !== "undefined" && typeof MediaSmart.Utilities !== "undefined" && typeof MediaSmart.insertAllAds !== "undefined") {MediaSmart.Utilities.initialise({area: "NEWS"});MediaSmart.insertAllAds();}});</script><!-- End Sensis --><img id="comscore-beacon-img" height="1" width="1"><script language="Javascript">var randnum = Math.floor(Math.random()*99999999);var p_url = escape(window.location.href);var p_title = escape(document.title);document.getElementById("comscore-beacon-img").src="http://beacon.securestudies.com/scripts/beacon.dll?C1=2&C2=6153249&C3=6153249&C4=www.goal.com&C5=Sports-Soccer&C6=Sports-Soccer&C7="+ p_url + "&C8=" + p_title + "&rn=" + randnum;</script>
<!-- start Vibrant Media IntelliTXT script section -->
<script type="text/javascript" src="http://goal.uk.intellitxt.com/intellitxt/front.asp?ipid=40185"></script>
<!-- end Vibrant Media IntelliTXT script section -->

            <!-- SiteCatalyst code version: H.25. Copyright 1996-2012 Adobe, Inc. All Rights Reserved More info available at http://www.omniture.com -->
            <script language="JavaScript" type="text/javascript"><!--
s.pageName="News : Main : Calciomercato : La Fiorentina aspetta Berbatov: c'è l'offerta al Manchester United. Per la difesa spunta Orban..."
s.channel="News"
s.prop1="News : Main"
s.prop2="News : Main : Calciomercato"
s.prop3="News : Main : Calciomercato"
s.hier1="News,Main,Calciomercato"
s.prop4="article page"
s.prop5="La Fiorentina aspetta Berbatov: c'è l'offerta al Manchester United. Per la difesa spunta Orban..."
s.prop6=s.eVar10="3327428"
s.server=""
s.pageType=""
s.prop11=
s.events="event13"
            var s_code=s.t();if(s_code)document.write(s_code)
            //--></script>
            <script language="JavaScript" type="text/javascript"><!--
                if(navigator.appVersion.indexOf('MSIE')>=0)document.write(unescape('%3C')+'\!-'+'-')
            //--></script>
            <noscript><img src="http://premiumtv.122.2o7.net/b/ss/goalglobal,goalitalian/1/H.25--NS/0?pageName=News%20%3A%20Main%20%3A%20Calciomercato%20%3A%20La%20Fiorentina%20aspetta%20Berbatov%3A%20c%27%C3%A8%20l%27offerta%20al%20Manchester%20United.%20Per%20la%20difesa%20spunta%20Orban...&g=%2Fit%2Fnews%2F7%2Fcalciomercato%2F2012%2F08%2F24%2F3327428%2Fla-fiorentina-aspetta-berbatov-c%25C3%25A8-lofferta-al-manchester&ch=News&c1=News%20%3A%20Main&c2=News%20%3A%20Main%20%3A%20Calciomercato&c3=News%20%3A%20Main%20%3A%20Calciomercato&c4=article%20page&c5=La%20Fiorentina%20aspetta%20Berbatov%3A%20c%27%C3%A8%20l%27offerta%20al%20Manchester%20United.%20Per%20la%20difesa%20spunta%20Orban...&c6=3327428" height="1" width="1" border="0" alt="" /></noscript>
            <!-- End SiteCatalyst code version: H.25. -->
<div id="ad1x1"></div><script type="text/javascript">
/* Append div#goal_loaded to body with window onload event */
window.onload = function() {

    var goal_loaded = document.createElement('div');
        goal_loaded.setAttribute('id', 'goal_loaded');

    document.body.appendChild(goal_loaded);
}
</script><div id="fb-root"></div>
</body>
</html>
